Ensembl,RS Genome,Pref RS Tran,Symbol,Alt Symbol,Disease Models,AR Pop Freq,AD Pop Freq,XL Pop Freq,HI-Dom,Desc,Phenotype Note,v2.1,v2.2,v3.1,v3.2,v4.0,v4.1,v5.0,v6.0,v7.0,Confidence,GEDIR,GEDIRALL,GEDIO,GEDIS,Clarification Needed
defaults,,,,,,0.002,0.000010,0.002,
*,,,,,AR;AD;XL,0.001,0.000010,0.001,,,,,,,,,,,,,0.5,,R
ENSG00000198691,NG_009073.1,NM_000350.2,ABCA4,,AR,0.004,0.004000,,,ATP binding cassette subfamily A member 4,,YES,YES,YES,YES,YES,YES,YES,YES,YES,,R,R
ENSG00000091262,NG_007558.2,NM_001171.5,ABCC6,,AR;AD,,,,,ATP binding cassette subfamily C member 6,,NO,NO,NO,YES,YES,YES,YES,YES,YES,,R,R
ENSG00000100997,NG_028119.1,NM_001042472.2,ABHD12,,AR,,,,,abhydrolase domain containing 12,,NO,NO,NO,YES,YES,YES,YES,YES,YES,,R,R
ENSG00000107897,NG_032960.3,NM_145698.3,ACBD5,,AR,,,,,acyl-CoA binding domain containing 5,,NO,NO,NO,NO,NO,NO,YES,YES,YES,,R,R
ENSG00000100412,NG_032143.1,NM_001098.2,ACO2,,AR,,,,,aconitase 2,,NO,NO,NO,NO,NO,NO,YES,YES,YES,,R,R,O
ENSG00000168615,NG_016335.1,NM_003816.2,ADAM9,,AR,,,,,ADAM metallopeptidase domain 9,,NO,NO,NO,YES,YES,YES,YES,YES,YES,,R,R
ENSG00000140873,NG_031879.2,NM_199355.2,ADAMTS18,,AR,,,,,ADAM metallopeptidase with thrombospondin type 1 motif 18,,NO,NO,NO,NO,NO,NO,YES,YES,YES,,R,R
ENSG00000152990,NG_032963.1,NM_145290.3,ADGRA3,GPR125,AR,,,,,adhesion G protein-coupled receptor A3,,NO,NO,NO,NO,NO,NO,YES,YES,YES,,R,R
ENSG00000164199,NG_007083.1,NM_032119.3,ADGRV1,GPR98,AR;AD,,,,,adhesion G protein-coupled receptor V1,,YES,YES,YES,YES,YES,YES,YES,YES,YES,,R,R
ENSG00000141385,NG_023361.1,NM_006796.2,AFG3L2,,AR;AD,,,,,AFG3 like matrix AAA peptidase subunit 2,,NO,NO,NO,NO,NO,NO,NO,YES,YES,,,,O
ENSG00000135541,NG_008643.1,NM_017651.4,AHI1,,AR,,,,,Abelson helper integration site 1,,YES,YES,YES,YES,YES,YES,YES,YES,YES,,R,R
ENSG00000129221,NG_008474.1,NM_014336.3,AIPL1,,AR,,,,,aryl hydrocarbon receptor interacting protein like 1,,YES,YES,YES,YES,YES,YES,YES,YES,YES,,R,R
ENSG00000116127,NG_011690.1,NM_015120.4,ALMS1,,AR,,,,,ALMS1 centrosome and basal body associated protein,,YES,YES,YES,YES,YES,YES,YES,YES,YES,,R,R
ENSG00000169379,NG_017076.1,NM_182896.2,ARL13B,,AR,,,,,ADP ribosylation factor like GTPase 13B,,YES,YES,YES,YES,YES,YES,YES,YES,YES,,R,R
ENSG00000102931,NG_033905.1,NM_012106.3,ARL2BP,,AR,,,,,ADP ribosylation factor like GTPase 2 binding protein,,NO,NO,NO,NO,NO,NO,YES,YES,YES,,R,R
ENSG00000113966,NG_008119.2,NM_177976.2,ARL6,,AR,,,,,ADP ribosylation factor like GTPase 6,,YES,YES,YES,YES,YES,YES,YES,YES,YES,,R,R
ENSG00000162174,,NM_001083926.1,ASRGL1,,AR,,,,,asparaginase like 1,,NO,NO,NO,NO,NO,NO,NO,YES,YES,,R,R
ENSG00000118217,NG_029773.1,NM_007348.3,ATF6,,AR,,,,,activating transcription factor 6,,NO,NO,NO,NO,NO,NO,NO,YES,YES,,R,R
ENSG00000163635,NG_008227.1,NM_000333.3,ATXN7,,AD,,,,,ataxin 7,,YES,YES,YES,YES,YES,YES,YES,YES,YES,,R,R
ENSG00000148090,NG_008017.1,NM_001698.2,AUH,,AR,,,,,AU RNA binding methylglutaconyl-CoA hydratase,,NO,NO,NO,NO,NO,NO,YES,YES,YES,,,,O
ENSG00000214413,NG_041778.1,NM_001195306.1,BBIP1,,AR,,,,,BBSome interacting protein 1,,NO,NO,NO,NO,NO,NO,YES,YES,YES,,R,R
ENSG00000174483,NG_009093.1,NM_024649.4,BBS1,,AR,,,,,Bardet-Biedl syndrome 1,,YES,YES,YES,YES,YES,YES,YES,YES,YES,,R,R
ENSG00000179941,NG_016357.1,NM_024685.3,BBS10,,AR,,,,,Bardet-Biedl syndrome 10,,YES,YES,YES,YES,YES,YES,YES,YES,YES,,R,R
ENSG00000181004,NG_021203.1,NM_152618.2,BBS12,,AR,,,,,Bardet-Biedl syndrome 12,,YES,YES,YES,YES,YES,YES,YES,YES,YES,,R,R
ENSG00000125124,NG_009312.1,NM_031885.3,BBS2,,AR,,,,,Bardet-Biedl syndrome 2,,YES,YES,YES,YES,YES,YES,YES,YES,YES,,R,R
ENSG00000140463,NG_009416.2,NM_033028.4,BBS4,,AR,,,,,Bardet-Biedl syndrome 4,,YES,YES,YES,YES,YES,YES,YES,YES,YES,,R,R
ENSG00000163093,NG_011567.1,NM_152384.2,BBS5,,AR,,,,,Bardet-Biedl syndrome 5,,YES,YES,YES,YES,YES,YES,YES,YES,YES,,R,R
ENSG00000138686,NG_009111.1,NM_176824.2,BBS7,,AR,,,,,Bardet-Biedl syndrome 7,,YES,YES,YES,YES,YES,YES,YES,YES,YES,,R,R
ENSG00000122507,NG_009306.1,NM_198428.2,BBS9,,AR,,,,,Bardet-Biedl syndrome 9,,YES,YES,YES,YES,YES,YES,YES,YES,YES,,R,R
ENSG00000167995,NG_009033.1,NM_004183.3,BEST1,,AR;AD,,,,,bestrophin 1,,YES,YES,YES,YES,YES,YES,YES,YES,YES,,R,R
ENSG00000130921,NG_027517.1,NM_152269.4,C12orf65,,AR,,,,,chromosome 12 open reading frame 65,,NO,NO,NO,NO,NO,NO,YES,YES,YES,,,,O
ENSG00000171155,NG_016219.1,NM_001011551.2,C1GALT1C1,,AR,,,,,C1GALT1 specific chaperone 1,,NO,NO,NO,NO,NO,NO,NO,YES,YES,0.1,R,R
ENSG00000223953,NG_012235.1,NM_015645.4,C1QTNF5,,AD,,,,,C1q and TNF related 5,,YES,YES,YES,YES,YES,YES,YES,YES,YES,,R,R
ENSG00000160226,NG_032952.1,NM_004928.2,CFAP410,C21orf2,AR,,,,,chromosome 21 open reading frame 2,,NO,NO,NO,NO,NO,NO,YES,YES,YES,,R,R
ENSG00000179270,NG_021427.1,NM_001029883.2,C2orf71,PCARE,AR,,,,,chromosome 2 open reading frame 71,,YES,YES,YES,YES,YES,YES,YES,YES,YES,,R,R
ENSG00000197603,NG_032772.1,NM_023073.3,CPLANE1,C5orf42,AR,,,,,chromosome 5 open reading frame 42,,NO,NO,NO,NO,YES,YES,YES,YES,YES,,R,R
ENSG00000156172,NG_032804.1,NM_177965.3,C8orf37,,AR,,,,,chromosome 8 open reading frame 37,,NO,YES,YES,YES,YES,YES,YES,YES,YES,,R,R
ENSG00000167434,NG_012050.1,NM_000717.3,CA4,,AD,,,,,carbonic anhydrase 4,,YES,YES,YES,YES,YES,YES,YES,YES,YES,,R,R
ENSG00000175544,NG_021211.1,NM_145200.3,CABP4,,AR,,,,,calcium binding protein 4,,YES,YES,YES,YES,YES,YES,YES,YES,YES,,R,R
ENSG00000102001,NG_009095.2,NM_005183.2,CACNA1F,,XL,,,,,calcium voltage-gated channel subunit alpha1 F,,YES,YES,YES,YES,YES,YES,YES,YES,YES,,R,R
ENSG00000151062,NG_012663.1,NM_172364.4,CACNA2D4,,AR,,,,,calcium voltage-gated channel auxiliary subunit alpha2delta 4,,YES,YES,YES,YES,YES,YES,YES,YES,YES,,R,R
ENSG00000149260,NG_033002.1,NM_004055.4,CAPN5,,AD,,,,,calpain 5,,NO,NO,NO,YES,YES,YES,YES,YES,YES,,R,R
ENSG00000048342,NG_013035.1,NM_001080522.2,CC2D2A,,AR,,,,,coiled-coil and C2 domain containing 2A,,YES,YES,YES,YES,YES,YES,YES,YES,YES,,R,R
ENSG00000107736,NG_008835.1,NM_022124.5,CDH23,,AR,,,,,cadherin related 23,,YES,YES,YES,YES,YES,YES,YES,YES,YES,,R,R
ENSG00000062038,NG_009096.1,NM_001793.4,CDH3,,AR,,,,,cadherin 3,,YES,YES,YES,YES,YES,YES,YES,YES,YES,,R,R
ENSG00000148600,NG_028034.1,NM_033100.3,CDHR1,,AR,,,,,cadherin related family member 1,,YES,YES,YES,YES,YES,YES,YES,YES,YES,,R,R
ENSG00000110274,NG_033032.1,NM_014956.4,CEP164,,AR,,,,,centrosomal protein 164,,YES,YES,YES,YES,YES,YES,YES,YES,YES,,R,R
ENSG00000198707,NG_008417.1,NM_025114.3,CEP290,,AR,,,,,centrosomal protein 290,,YES,YES,YES,YES,YES,YES,YES,YES,YES,,R,R
ENSG00000106477,NG_032164.1,NM_018718.2,CEP41,,AR,,,,,centrosomal protein 41,,NO,NO,NO,NO,YES,YES,YES,YES,YES,,R,R
ENSG00000148019,NG_053171.1,NM_001098802.1,CEP78,,AR,,,,,centrosomal protein 78,,NO,NO,NO,NO,NO,NO,NO,YES,YES,,R,R
ENSG00000173588,NG_051825.1,NM_016122.2,CEP83,CCDC41,AR,,,,,centrosomal protein 83,,NO,NO,NO,NO,NO,NO,YES,YES,YES,,R,R
ENSG00000188452,NG_021178.1,NM_001030311.2,CERKL,,AR,,,,,ceramide kinase like,,YES,YES,YES,YES,YES,YES,YES,YES,YES,,R,R
ENSG00000188419,NG_009874.2,NM_000390.2,CHM,,XL-Dom,,,,,CHM Rab escort protein 1,,YES,YES,YES,YES,YES,YES,YES,YES,YES,,R,R
ENSG00000128656,NG_012642.1,NM_001822.5,CHN1,,AD,,,,,chimerin 1,,NO,NO,NO,NO,NO,NO,YES,YES,NO,,,,,S
ENSG00000136425,NG_033006.1,NM_006383.3,CIB2,,AR,,,,,calcium and integrin binding family member 2,,NO,NO,NO,YES,YES,YES,YES,YES,YES,,R,R
ENSG00000145354,NG_008636.2,NM_001008388.4,CISD2,,AR,,,,,CDGSH iron sulfur domain 2,,NO,NO,NO,NO,NO,NO,YES,YES,YES,,,,O
ENSG00000188603,NG_008654.2,NM_001042432.1,CLN3,,AR,,,,,CLN3 battenin,,YES,YES,YES,YES,YES,YES,YES,YES,YES,,R,R
ENSG00000102805,NG_009064.1,NM_006493.2,CLN5,,AR,,,,,CLN5 intracellular trafficking protein,,NO,NO,NO,NO,NO,YES,YES,YES,YES,,R,R
ENSG00000128973,NG_008764.2,NM_017882.2,CLN6,,AR,,,,,CLN6 transmembrane ER protein,,NO,NO,NO,NO,NO,YES,YES,YES,YES,,R,R
ENSG00000182372,NG_008656.2,NM_018941.3,CLN8,,AR,,,,,CLN8 transmembrane ER and ERGIC protein,,NO,NO,NO,NO,NO,YES,YES,YES,YES,,R,R
ENSG00000163646,NG_009168.1,NM_174878.2,CLRN1,,AR,,,,,clarin 1,,YES,YES,YES,YES,YES,YES,YES,YES,YES,,R,R
ENSG00000198515,NG_009193.1,NM_001142564.1,CNGA1,,AR,,,,,cyclic nucleotide gated channel alpha 1,,YES,YES,YES,YES,YES,YES,YES,YES,YES,,R,R
ENSG00000144191,NG_009097.1,NM_001298.2,CNGA3,,AR,,,,,cyclic nucleotide gated channel alpha 3,,YES,YES,YES,YES,YES,YES,YES,YES,YES,,R,R
ENSG00000070729,NG_016351.1,NM_001297.4,CNGB1,,AR,,,,,cyclic nucleotide gated channel beta 1,,YES,YES,YES,YES,YES,YES,YES,YES,YES,,R,R
ENSG00000170289,NG_016980.1,NM_019098.4,CNGB3,,AR,,,,,cyclic nucleotide gated channel beta 3,,YES,YES,YES,YES,YES,YES,YES,YES,YES,,R,R
ENSG00000158158,NG_016608.1,NM_020184.3,CNNM4,,AR,,,,,cyclin and CBS domain divalent metal cation transport mediator 4,,YES,YES,YES,YES,YES,YES,YES,YES,YES,,R,R
ENSG00000060718,NG_008033.1,NM_080629.2,COL11A1,,AD,,,,,collagen type XI alpha 1 chain,,YES,YES,YES,YES,YES,YES,YES,YES,YES,,R,R
ENSG00000164692,NG_007405.1,NM_000089.3,COL1A2,,AD,,,,,collagen type I alpha 2 chain,,NO,NO,NO,NO,NO,NO,NO,NO,YES,,R,R
ENSG00000139219,NG_008072.1,NM_001844.4,COL2A1,,AD,,,,,collagen type II alpha 1 chain,,YES,YES,YES,YES,YES,YES,YES,YES,YES,,R,R
ENSG00000112280,NG_011654.1,NM_001851.4,COL9A1,,AR;AD,,,,,collagen type IX alpha 1 chain,,YES,YES,YES,YES,YES,YES,YES,YES,YES,,R,R
ENSG00000134376,NG_008483.2,NM_201253.2,CRB1,,AR,,,,,crumbs 1 cell polarity complex component,,YES,YES,YES,YES,YES,YES,YES,YES,YES,,R,R
ENSG00000105392,NG_008605.1,NM_000554.4,CRX,,AR;AD,,,,,cone-rod homeobox,,YES,YES,YES,YES,YES,YES,YES,YES,YES,,R,R
ENSG00000104218,NG_034100.1,NM_024790.6,CSPP1,,AR,,,,,centrosome and spindle pole associated protein 1,,NO,NO,NO,NO,NO,NO,YES,YES,YES,,R,R
ENSG00000102974,NG_033892.1,NM_006565.3,CTCF,,,,,,,CCCTC-binding factor,,YES,YES,YES,YES,YES,YES,YES,NO,YES,0.5,R,R
ENSG00000138061,NG_008386.2,NM_000104.3,CYP1B1,,AR,,,,,cytochrome P450 family 1 subfamily B member 1,,NO,NO,YES,YES,YES,YES,YES,YES,YES,,,,O
ENSG00000145476,NG_007965.1,NM_207352.3,CYP4V2,,AR,,,,,cytochrome P450 family 4 subfamily V member 2,,YES,YES,YES,YES,YES,YES,YES,YES,YES,,R,R
ENSG00000117682,NG_029786.1,NM_024887.3,DHDDS,,AR,,,,,dehydrodolichyl diphosphate synthase subunit,,YES,YES,YES,YES,YES,YES,YES,YES,YES,,R,R
ENSG00000140829,NG_034207.1,NM_014003.3,DHX38,,AR,,,,,DEAH-box helicase 38,,NO,NO,NO,NO,NO,NO,YES,YES,YES,,R,R
ENSG00000156171,NG_053089.1,NM_178454.4,DRAM2,,AR,,,,,DNA damage regulated autophagy modulator 2,,NO,NO,NO,NO,NO,NO,NO,YES,YES,,R,R
ENSG00000197057,NG_032962.1,NM_001170700.2,DTHD1,,AR,,,,,death domain containing 1,,NO,NO,NO,NO,NO,NO,YES,YES,YES,,R,R
ENSG00000115380,NG_009098.1,NM_001039348.2,EFEMP1,,AD,,,,,EGF containing fibulin like extracellular matrix protein 1,,YES,YES,YES,YES,YES,YES,YES,YES,YES,,R,R
ENSG00000118402,NG_009108.1,NM_022726.3,ELOVL4,,AR;AD,,,,,ELOVL fatty acid elongase 4,,YES,YES,YES,YES,YES,YES,YES,YES,YES,,R,R
ENSG00000127463,NG_032948.1,NM_015047.2,EMC1,,AR,,,,,ER membrane protein complex subunit 1,,NO,NO,NO,NO,NO,NO,YES,YES,YES,,R,R
ENSG00000225830,NG_009442.1,NM_000124.3,ERCC6,,AR,,,,,ERCC excision repair 6 chromatin remodeling factor,,YES,YES,YES,YES,YES,YES,YES,YES,YES,,R,R
ENSG00000188107,NG_023443.2,NM_001142800.1,EYS,,AR,,,,,eyes shut homolog (Drosophila),,YES,YES,YES,YES,YES,YES,YES,YES,YES,,R,R
ENSG00000170264,NG_028125.1,NM_001201543.1,FAM161A,,AR,,,,,family with sequence similarity 161 member A,,YES,YES,YES,YES,YES,YES,YES,YES,YES,,R,R
ENSG00000163013,NG_033973.1,NM_001080410.2,FBXO41,,AR,,,,,F-box protein 41,,NO,NO,NO,NO,NO,NO,NO,YES,YES,0.1,R,R
ENSG00000162769,NG_028131.1,NM_014053.3,FLVCR1,,AR,,,,,feline leukemia virus subgroup C cellular receptor 1,,YES,YES,YES,YES,YES,YES,YES,YES,YES,,R,R
ENSG00000054598,NG_009368.1,NM_001453.2,FOXC1,,AD,,,,,forkhead box C1,,NO,NO,YES,YES,YES,YES,YES,YES,YES,,,,O
ENSG00000137273,NG_046984.1,NM_001452.1,FOXF2,,AD,,,,,forkhead box F2,,NO,NO,NO,NO,NO,NO,YES,YES,YES,,,,O,,Added v5 or v6?
ENSG00000186765,NG_015964.1,NM_001077182.2,FSCN2,,AD,,,,,fascin actin-bundling protein 2 retinal,,YES,YES,YES,YES,YES,YES,YES,YES,YES,0.1,R,R
ENSG00000174804,NG_011752.1,NM_012193.3,FZD4,,AD,,,,,frizzled class receptor 4,,YES,YES,YES,YES,YES,YES,YES,YES,YES,,R,R
ENSG00000109586,,NM_017423.2,GALNT7,,AR,,,,,polypeptide N-acetylgalactosaminyltransferase 7,,NO,NO,NO,NO,NO,NO,NO,YES,YES,0.1,R,R
ENSG00000156466,NG_008981.1,NM_001001557.2,GDF6,,AR;AD,,,,,growth differentiation factor 6,,NO,NO,NO,NO,NO,NO,YES,YES,YES,,R,R
ENSG00000114349,NG_009831.1,NM_144499.2,GNAT1,,AR;AD,,,,,G protein subunit alpha transducin 1,,YES,YES,YES,YES,YES,YES,YES,YES,YES,,R,R
ENSG00000134183,NG_009099.1,NM_005272.3,GNAT2,,AR,,,,,G protein subunit alpha transducin 2,,YES,YES,YES,YES,YES,YES,YES,YES,YES,,R,R
ENSG00000078369,NG_047052.1,NM_002074.3,GNB1,,AR,,,,,G protein subunit beta 1,,YES,YES,YES,YES,YES,YES,YES,YES,YES,0.1,R,R
ENSG00000111664,NG_009100.1,NM_002075.3,GNB3,,AR,0.001,0.001000,,,G protein subunit beta 3,,NO,NO,NO,NO,NO,NO,NO,YES,YES,,R,R
ENSG00000090581,NG_016985.1,NM_032520.4,GNPTG,,AR,,,,,N-acetylglucosamine-1-phosphate transferase gamma subunit,,NO,YES,YES,YES,YES,YES,YES,YES,YES,,R,R
ENSG00000101850,NG_009074.1,NM_000273.2,GPR143,,XL,,,,,G protein-coupled receptor 143,,YES,YES,YES,YES,YES,YES,YES,YES,YES,,R,R
ENSG00000277399,NG_032655.2,NM_001004334.2,GPR179,,AR,,,,,G protein-coupled receptor 179,,NO,NO,NO,NO,YES,YES,YES,YES,YES,,R,R
ENSG00000185974,NG_000000.0,NM_002929.2,GRK1,,AR,,,,,G protein-coupled receptor kinase 1,,YES,YES,YES,YES,YES,YES,YES,YES,YES,,R,R
ENSG00000113262,NG_008105.1,NM_000843.3,GRM6,,AR,,,,,glutamate metabotropic receptor 6,,YES,YES,YES,YES,YES,YES,YES,YES,YES,,R,R
ENSG00000030582,NG_007886.1,NM_002087.2,GRN,,AR;AD,,,,,granulin precursor,,NO,NO,NO,NO,NO,YES,YES,YES,YES,,R,R
ENSG00000048545,NG_009938.1,NM_000409.3,GUCA1A,,AD,,,,,guanylate cyclase activator 1A,,YES,YES,YES,YES,YES,YES,YES,YES,YES,,R,R
ENSG00000112599,NG_016216.1,NM_002098.5,GUCA1B,,AD,,,,,guanylate cyclase activator 1B,,YES,YES,YES,YES,YES,YES,YES,YES,YES,0.1,R,R
ENSG00000132518,NG_009092.1,NM_000180.3,GUCY2D,,AR;AD,,,,,guanylate cyclase 2D retinal,,YES,YES,YES,YES,YES,YES,YES,YES,YES,,R,R
ENSG00000170445,NG_032158.1,NM_002109.4,HARS1,HARS,AR,,,,,histidyl-tRNA synthetase,,NO,NO,NO,NO,YES,YES,YES,YES,YES,,R,R
ENSG00000112855,NG_021415.1,NM_001363535.1,HARS2,,AR,,,,,histidyl-tRNA synthetase 2  mitochondrial,,NO,NO,NO,NO,NO,NO,NO,YES,YES,,R,R
ENSG00000068024,NG_009235.1,NM_006037.3,HDAC4,,AR,,,,,histone deacetylase 4,,NO,NO,NO,NO,NO,NO,NO,YES,YES,0.5,R,R
ENSG00000143341,NG_011841.1,NM_031935.2,HMCN1,,AD,,,,,hemicentin 1,,YES,YES,YES,YES,NO,NO,NO,NO,YES,0.5,R,R
ENSG00000215612,NG_013062.2,NM_018942.2,HMX1,,AR,,,,,H6 family homeobox 1,,NO,NO,NO,NO,NO,NO,NO,YES,YES,,R,R
ENSG00000105991,NG_011813.1,NM_005522.4,HOXA1,,AR,,,,,homeobox A1,,NO,NO,NO,NO,NO,NO,YES,YES,NO,,,,,S
ENSG00000120094,NG_032884.1,NM_002144.3,HOXB1,,AR,,,,,homeobox B1,,NO,NO,NO,NO,NO,NO,YES,YES,NO,,,,,S
ENSG00000101365,NG_012149.1,NM_006899.3,IDH3B,,AR,,,,,isocitrate dehydrogenase 3 (NAD(+)) beta,,YES,YES,YES,YES,YES,YES,YES,YES,YES,,R,R
ENSG00000163913,NG_023392.1,NM_052985.3,IFT122,,AR,,,,,intraflagellar transport 122,,NO,NO,NO,NO,NO,NO,YES,YES,YES,,R,R
ENSG00000187535,NG_032783.1,NM_014714.3,IFT140,,AR,,,,,intraflagellar transport 140,,NO,NO,NO,NO,YES,YES,YES,YES,YES,,R,R
ENSG00000138002,NG_034068.1,NM_015662.1,IFT172,,AR,,,,,intraflagellar transport 172,,NO,NO,NO,NO,YES,YES,YES,YES,YES,,R,R
ENSG00000100360,NG_034205.1,NM_006860.4,IFT27,,AR,,,,,intraflagellar transport 27,,NO,NO,NO,NO,NO,NO,YES,YES,YES,,R,R
ENSG00000119650,NG_031957.1,NM_052873.2,IFT43,,AR,,,,,intraflagellar transport 43,,NO,NO,NO,NO,NO,NO,YES,YES,YES,,R,R
ENSG00000068885,NG_022932.1,NM_020800.2,IFT80,,AR,,,,,intraflagellar transport 80,,YES,YES,YES,YES,YES,YES,YES,YES,YES,,R,R
ENSG00000032742,,NM_175605.3,IFT88,,AR,,,,,intraflagellar transport 88,,NO,NO,NO,NO,YES,YES,YES,YES,YES,,R,R
ENSG00000163395,,NM_001164586.1,IGFN1,,AR,,,,,immunoglobulin-like and fibronectin type III domain containing 1,,NO,NO,NO,NO,NO,NO,NO,YES,YES,0.1,R,R
ENSG00000269335,NG_009896.1,NM_001099857.1,IKBKG,,XL,,,,,inhibitor of nuclear factor kappa B kinase subunit gamma,,NO,NO,NO,NO,YES,YES,YES,YES,YES,,R,R
ENSG00000106348,NG_009194.1,NM_000883.3,IMPDH1,,AD,,,,,inosine monophosphate dehydrogenase 1,,YES,YES,YES,YES,YES,YES,YES,YES,YES,,R,R
ENSG00000112706,NG_041812.1,NM_001563.2,IMPG1,,AR;AD,,,,,interphotoreceptor matrix proteoglycan 1,,NO,NO,NO,NO,NO,NO,YES,YES,YES,,R,R
ENSG00000081148,NG_028284.1,NM_016247.3,IMPG2,,AR,,,,,interphotoreceptor matrix proteoglycan 2,,YES,YES,YES,YES,YES,YES,YES,YES,YES,,R,R
ENSG00000148384,NG_016126.1,NM_019892.4,INPP5E,,AR,,,,,inositol polyphosphate-5-phosphatase E,,NO,NO,NO,YES,YES,YES,YES,YES,YES,,R,R
ENSG00000119509,NG_008316.1,NM_014425.3,INVS,,AR,,,,,inversin,,YES,YES,YES,YES,YES,YES,YES,YES,YES,,R,R
ENSG00000173226,NG_015887.1,NM_001023570.2,IQCB1,,AR,,,,,IQ motif containing B1,,YES,YES,YES,YES,YES,YES,YES,YES,YES,,R,R
ENSG00000136156,NG_013069.1,NM_021999.4,ITM2B,,AD,,,,,integral membrane protein 2B,,NO,NO,NO,NO,YES,YES,YES,YES,YES,,R,R
ENSG00000101384,NG_007496.1,NM_000214.2,JAG1,,AD,,,,Yes,jagged canonical Notch ligand 1,,YES,YES,YES,YES,YES,YES,YES,YES,YES,,R,R
ENSG00000115474,NG_016742.1,NM_002242.4,KCNJ13,,AR;AD,,,,,potassium voltage-gated channel subfamily J member 13,,YES,YES,YES,YES,YES,YES,YES,YES,YES,,R,R
ENSG00000168263,NG_012181.1,NM_133497.3,KCNV2,,AR,,,,,potassium voltage-gated channel modifier subfamily V member 2,,YES,YES,YES,YES,YES,YES,YES,YES,YES,,R,R
ENSG00000243335,NG_028110.1,NM_153033.4,KCTD7,,AR,,,,,potassium channel tetramerization domain containing 7,,NO,NO,NO,NO,NO,YES,YES,YES,YES,,R,R
ENSG00000122778,NG_032965.1,NM_001164665.1,KIAA1549,,AR,,,,,KIAA1549,,NO,NO,NO,NO,NO,NO,YES,YES,YES,,R,R
ENSG00000183354,,NM_001017969.2,KIAA2026,,AR,,,,,KIAA2026,,NO,NO,NO,NO,YES,YES,YES,NO,NO,0.1,R,R
ENSG00000138160,NG_032580.1,NM_004523.3,KIF11,,AD,,,,Yes,kinesin family member 11,,NO,NO,NO,NO,YES,YES,YES,YES,YES,,R,R
ENSG00000139116,NG_017067.1,NM_001173464.1,KIF21A,,AD,,,,,kinesin family member 21A,,NO,NO,NO,NO,NO,NO,YES,YES,NO,,,,,S
ENSG00000088970,NG_033122.2,NM_018474.4,KIZ,PLK1S1,AR,,,,,kizuna centrosomal protein,,NO,NO,NO,NO,NO,NO,YES,YES,YES,,R,R
ENSG00000122550,NG_016983.1,NM_001031710.2,KLHL7,,AD,,,,,kelch like family member 7,,YES,YES,YES,YES,YES,YES,YES,YES,YES,,R,R
ENSG00000135338,NG_016011.1,NM_181714.3,LCA5,,AR,,,,,LCA5 lebercilin,,YES,YES,YES,YES,YES,YES,YES,YES,YES,,R,R
ENSG00000121207,NG_009110.1,NM_004744.3,LRAT,,AR,,,,,lecithin retinol acyltransferase (phosphatidylcholine--retinol O-acyltransferase),,YES,YES,YES,YES,YES,YES,YES,YES,YES,,R,R
ENSG00000183423,NG_033249.1,NM_198506.4,LRIT3,,AR,,,,,leucine rich repeat Ig-like and transmembrane domains 3,,NO,NO,NO,YES,YES,YES,YES,YES,YES,,R,R
ENSG00000162337,NG_015835.1,NM_002335.2,LRP5,,AR;AD,,,,,LDL receptor related protein 5,,YES,YES,YES,YES,YES,YES,YES,YES,YES,,R,R
ENSG00000119681,NG_021486.1,NM_000428.2,LTBP2,,AR,,,,,latent transforming growth factor beta binding protein 2,,NO,NO,YES,YES,YES,YES,YES,YES,YES,,,,O
ENSG00000163818,NG_033917.1,NM_020347.3,LZTFL1,,AR,,,,,leucine zipper transcription factor like 1,,NO,NO,NO,NO,YES,YES,YES,YES,YES,,R,R
ENSG00000111837,NG_030040.1,NM_001242957.1,MAK,,AR,,,,,male germ cell associated kinase,,NO,YES,YES,YES,YES,YES,YES,YES,YES,,R,R
ENSG00000114738,NG_051548.1,NM_001243926.1,MAPKAPK3,,AR,,,,,mitogen-activated protein kinase-activated protein kinase 3,,NO,NO,NO,NO,NO,NO,NO,YES,YES,,R,R
ENSG00000153208,NG_011607.1,NM_006343.2,MERTK,,AR,,,,,MER proto-oncogene tyrosine kinase,,YES,YES,YES,YES,YES,YES,YES,YES,YES,,R,R
ENSG00000116688,NG_007945.1,NM_014874.3,MFN2,,AD,,,,,mitofusin 2,,NO,NO,NO,NO,YES,YES,YES,YES,YES,,R,R
ENSG00000235718,NG_012235.1,NM_031433.3,MFRP,,AR,,,,,membrane frizzled-related protein,,YES,YES,YES,YES,YES,YES,YES,YES,YES,,R,R
ENSG00000164073,NG_008657.1,NM_152778.2,MFSD8,,AR,,,,,major facilitator superfamily domain containing 8,,NO,NO,NO,NO,NO,YES,YES,YES,YES,,R,R
ENSG00000125863,NG_009109.1,NM_018848.3,MKKS,,AR,,,,,McKusick-Kaufman syndrome,,YES,YES,YES,YES,YES,YES,YES,YES,YES,,R,R
ENSG00000011143,NG_013032.1,NM_017777.3,MKS1,,AR,,,,,Meckel syndrome type 1,,NO,NO,NO,YES,YES,YES,YES,YES,YES,,R,R
ENSG00000198899,NC_012920.1,,MT-ATP6,,MT,,,,,mitochondrially encoded ATP synthase 6,,NO,NO,NO,NO,YES,YES,YES,YES,YES,,R,R,O
ENSG00000228253,NC_012920.1,,MT-ATP8,,MT,,,,,mitochondrially encoded ATP synthase 8,,NO,NO,NO,NO,YES,YES,YES,YES,YES,,R,R,O
ENSG00000198804,NC_012920.1,,MT-CO1,,MT,,,,,mitochondrially encoded cytochrome c oxidase I,,NO,NO,NO,NO,YES,YES,YES,YES,YES,,R,R,O
ENSG00000198712,NC_012920.1,,MT-CO2,,MT,,,,,mitochondrially encoded cytochrome c oxidase II,,NO,NO,NO,NO,YES,YES,YES,YES,YES,,R,R,O
ENSG00000198938,NC_012920.1,,MT-CO3,,MT,,,,,mitochondrially encoded cytochrome c oxidase III,,NO,NO,NO,NO,YES,YES,YES,YES,YES,,R,R,O
ENSG00000198727,NC_012920.1,,MT-CYB,,MT,,,,,mitochondrially encoded cytochrome b,,NO,NO,NO,NO,YES,YES,YES,YES,YES,,R,R,O
ENSG00000198888,NC_012920.1,,MT-ND1,,MT,,,,,mitochondrially encoded NADH:ubiquinone oxidoreductase core subunit 1,,NO,NO,NO,NO,YES,YES,YES,YES,YES,,R,R,O
ENSG00000198763,NC_012920.1,,MT-ND2,,MT,,,,,mitochondrially encoded NADH:ubiquinone oxidoreductase core subunit 2,,NO,NO,NO,NO,YES,YES,YES,YES,YES,,R,R,O
ENSG00000198840,NC_012920.1,,MT-ND3,,MT,,,,,mitochondrially encoded NADH:ubiquinone oxidoreductase core subunit 3,,NO,NO,NO,NO,YES,YES,YES,YES,YES,,R,R,O
ENSG00000198886,NC_012920.1,,MT-ND4,,MT,,,,,mitochondrially encoded NADH:ubiquinone oxidoreductase core subunit 4,,NO,NO,NO,NO,YES,YES,YES,YES,YES,,R,R,O
ENSG00000212907,NC_012920.1,,MT-ND4L,,MT,,,,,mitochondrially encoded NADH:ubiquinone oxidoreductase core subunit 4L,,NO,NO,NO,NO,YES,YES,YES,YES,YES,,R,R,O
ENSG00000198786,NC_012920.1,,MT-ND5,,MT,,,,,mitochondrially encoded NADH:ubiquinone oxidoreductase core subunit 5,,NO,NO,NO,NO,YES,YES,YES,YES,YES,,R,R,O
ENSG00000198695,NC_012920.1,,MT-ND6,,MT,,,,,mitochondrially encoded NADH:ubiquinone oxidoreductase core subunit 6,,NO,NO,NO,NO,YES,YES,YES,YES,YES,,R,R,O
ENSG00000210176,NC_012920.1,,MT-TH,,MT,,,,,mitochondrially encoded tRNA histidine,,NO,NO,NO,NO,YES,YES,YES,YES,YES,,R,R,O
ENSG00000209082,NC_012920.1,,MT-TL1,,MT,,,,,mitochondrially encoded tRNA leucine 1 (UUA/G),,NO,NO,NO,NO,YES,YES,YES,YES,YES,,R,R,O
ENSG00000210196,NC_012920.1,,MT-TP,,MT,,,,,mitochondrially encoded tRNA proline,,NO,NO,NO,NO,YES,YES,YES,YES,YES,,R,R,O
ENSG00000210184,NC_012920.1,,MT-TS2,,MT,,,,,mitochondrially encoded tRNA serine 2 (AGU/C),,NO,NO,NO,NO,YES,YES,YES,YES,YES,,R,R,O
ENSG00000107951,NG_028096.1,NM_018109.3,MTPAP,,AR,,,,,mitochondrial poly(A) polymerase,,NO,NO,NO,NO,NO,NO,YES,YES,YES,,,,O
ENSG00000138823,NG_011469.1,NM_000253.2,MTTP,,AR,,,,,microsomal triglyceride transfer protein,,YES,YES,YES,YES,YES,YES,YES,YES,YES,,R,R
ENSG00000110921,NG_007702.1,NM_000431.2,MVK,,AR,,,,,mevalonate kinase,,NO,NO,NO,NO,NO,NO,YES,YES,YES,,R,R
ENSG00000137474,NG_009086.1,NM_000260.3,MYO7A,,AR,,,,,myosin VIIA,,YES,YES,YES,YES,YES,YES,YES,YES,YES,,R,R
ENSG00000034971,NG_008859.1,NM_000261.1,MYOC,,AD,,,,,myocilin,,NO,NO,YES,YES,YES,YES,YES,YES,YES,,,,O
ENSG00000124479,NG_009832.1,NM_000266.3,NDP,,XL,,,,,NDP norrin cystine knot growth factor,,YES,YES,YES,YES,YES,YES,YES,YES,YES,,R,R
ENSG00000023228,NG_009248.1,NM_005006.6,NDUFS1,,AR,,,,,NADH:ubiquinone oxidoreductase core subunit S1,,NO,NO,NO,NO,NO,NO,YES,YES,YES,,,,O
ENSG00000117650,NG_029112.1,NM_002497.3,NEK2,,AR,,,,,NIMA related kinase 2,,NO,NO,NO,NO,NO,NO,YES,YES,YES,,R,R
ENSG00000114904,NG_053026.1,NM_003157.4,NEK4,,AR,,,,,NIMA related kinase 4,,YES,YES,YES,YES,YES,YES,YES,NO,NO,0.5,R,R
ENSG00000160602,NG_012263.1,NM_178170.2,NEK8,,AR,,,,,NIMA related kinase 8,,YES,YES,YES,YES,YES,YES,YES,NO,NO,0.5,R,R
ENSG00000162992,NG_011820.2,NM_002500.4,NEUROD1,,AR,,,,,neuronal differentiation 1,,NO,NO,NO,NO,NO,NO,NO,YES,YES,,R,R
ENSG00000116044,,NM_006164.4,NFE2L2,,AR,,,,,nuclear factor erythroid 2 like 2,,NO,NO,NO,NO,NO,NO,NO,YES,YES,0.1,R,R
ENSG00000177453,,NM_153361.3,NIM1K,NIM1,AR,,,,,NIM1 serine/threonine protein kinase,,YES,YES,YES,YES,YES,YES,YES,NO,NO,0.1,R,R
ENSG00000173614,NG_032954.1,NM_022787.3,NMNAT1,,AR,,,,,nicotinamide nucleotide adenylyltransferase 1,,NO,NO,YES,YES,YES,YES,YES,YES,YES,,R,R
ENSG00000144061,NG_008287.1,NM_000272.3,NPHP1,,AR,,,,,nephrocystin 1,,YES,YES,YES,YES,YES,YES,YES,YES,YES,,R,R
ENSG00000113971,NG_008130.1,NM_153240.4,NPHP3,,AR,,,,,nephrocystin 3,,YES,YES,YES,YES,YES,YES,YES,YES,YES,,R,R
ENSG00000131697,NG_011724.2,NM_015102.3,NPHP4,,AR,,,,,nephrocystin 4,,YES,YES,YES,YES,YES,YES,YES,YES,YES,,R,R
ENSG00000126368,NG_033084.1,NM_021724.4,NR1D1,,AR,,,,,nuclear receptor subfamily 1 group D member 1,,NO,NO,NO,NO,NO,NO,NO,YES,YES,0.5,R,R
ENSG00000278570,NG_009113.2,NM_014249.3,NR2E3,,AR;AD,,,,,nuclear receptor subfamily 2 group E member 3,,YES,YES,YES,YES,YES,YES,YES,YES,YES,,R,R
ENSG00000175745,NG_034119.1,NM_005654.4,NR2F1,,AR,,,,,nuclear receptor subfamily 2 group F member 1,,NO,NO,NO,NO,NO,NO,YES,YES,YES,,,,O
ENSG00000129535,NG_011697.1,NM_006177.3,NRL,,AR;AD,,,,,neural retina leucine zipper,,YES,YES,YES,YES,YES,YES,YES,YES,YES,,R,R
ENSG00000013374,NG_029746.1,NM_001243351.1,NUB1,,AR;AD,,,,,negative regulator of ubiquitin like proteins 1,,YES,YES,YES,YES,YES,YES,YES,NO,NO,0.1,R,R
ENSG00000171773,,NM_138454.1,NXNL1,,AR,,,,,nucleoredoxin like 1,,NO,NO,NO,YES,YES,YES,YES,YES,YES,0.5,R,R
ENSG00000188937,NG_009112.1,NM_022567.2,NYX,,XL-Rec,,,,,nyctalopin,,YES,YES,YES,YES,YES,YES,YES,YES,YES,,R,R
ENSG00000065154,NG_008861.1,NM_000274.3,OAT,,AR,,,,,ornithine aminotransferase,,YES,YES,YES,YES,YES,YES,YES,YES,YES,,R,R
ENSG00000104044,NG_009846.1,NM_000275.2,OCA2,,AR,,,,,OCA2 melanosomal transmembrane protein,,YES,YES,YES,YES,YES,YES,YES,YES,YES,,R,R
ENSG00000046651,NG_008872.1,NM_003611.2,OFD1,,XL,,,,,OFD1 centriole and centriolar satellite protein,,NO,NO,NO,NO,YES,YES,YES,YES,YES,,R,R
ENSG00000198836,NG_011605.1,NM_015560.2,OPA1,,AD,,,,,OPA1 mitochondrial dynamin like GTPase,,YES,YES,YES,YES,YES,YES,YES,YES,YES,,R,R,O
ENSG00000125741,NG_013332.1,NM_025136.3,OPA3,,AR;AD,,,,,OPA3 outer mitochondrial membrane lipid metabolism regulator,,YES,YES,YES,YES,YES,YES,YES,YES,YES,,R,R,O
ENSG00000102076,NG_009105.2,NM_020061.4,OPN1LW,,XL,,,,,opsin 1 long wave sensitive,,YES,YES,YES,YES,YES,YES,YES,YES,YES,,R,R
ENSG00000268221,NG_011606.1,NM_000513.2,OPN1MW,,XL,,,,,opsin 1 medium wave sensitive,,YES,YES,YES,YES,YES,YES,YES,YES,YES,,R,R
ENSG00000128617,NG_009094.1,NM_001708.2,OPN1SW,,AD,,,,,opsin 1 short wave sensitive,,YES,YES,YES,YES,YES,YES,YES,YES,YES,,R,R
ENSG00000123240,NG_012876.1,NM_001008211.1,OPTN,,AD,,,,,optineurin,,NO,NO,YES,YES,YES,YES,YES,YES,YES,,,,O
ENSG00000165588,NG_008204.1,NM_021728.3,OTX2,,AR;AD,,,,,orthodenticle homeobox 2,,NO,NO,NO,YES,YES,YES,YES,YES,YES,,R,R
ENSG00000125779,NG_008131.3,NM_153638.2,PANK2,,AR,,,,,pantothenate kinase 2,,YES,YES,YES,YES,YES,YES,YES,YES,YES,,R,R
ENSG00000075891,NG_008680.2,NM_003987.3,PAX2,,AD,,,,,paired box 2,,NO,NO,NO,YES,YES,YES,YES,YES,YES,,R,R
ENSG00000007372,NG_008679.1,NM_001127612.1,PAX6,,AD,,,,,paired box 6,,NO,NO,YES,YES,YES,YES,YES,YES,YES,,,,O
ENSG00000150275,NG_009191.2,NM_001142763.1,PCDH15,,AR,,,,,protocadherin related 15,,YES,YES,YES,YES,YES,YES,YES,YES,YES,,R,R
ENSG00000161217,NG_042817.1,NM_005017.2,PCYT1A,,AR,,,,,phosphate cytidylyltransferase 1 choline alpha,,NO,NO,NO,NO,NO,NO,YES,YES,YES,,R,R
ENSG00000178104,NG_027693.2,NM_014644.5,PDE4DIP,,AR,,,,,phosphodiesterase 4D interacting protein,,NO,NO,NO,NO,NO,NO,NO,YES,YES,0.1,R,R
ENSG00000132915,NG_009102.1,NM_000440.2,PDE6A,,AR,,,,,phosphodiesterase 6A,,YES,YES,YES,YES,YES,YES,YES,YES,YES,,R,R
ENSG00000133256,NG_009839.1,NM_000283.3,PDE6B,,AR;AD,,,,,phosphodiesterase 6B,,YES,YES,YES,YES,YES,YES,YES,YES,YES,,R,R
ENSG00000095464,NG_016752.1,NM_006204.3,PDE6C,,AR,,,,,phosphodiesterase 6C,,NO,NO,NO,YES,YES,YES,YES,YES,YES,,R,R
ENSG00000156973,NG_034064.1,NM_002601.2,PDE6D,,AR,,,,,phosphodiesterase 6D,,NO,NO,NO,YES,YES,YES,YES,YES,YES,,R,R
ENSG00000185527,NG_009834.1,NM_002602.3,PDE6G,,AR,,,,,phosphodiesterase 6G,,YES,YES,YES,YES,YES,YES,YES,YES,YES,,R,R
ENSG00000139053,NG_016859.1,NM_006205.2,PDE6H,,AR,,,,,phosphodiesterase 6H,,NO,NO,NO,YES,YES,YES,YES,YES,YES,,R,R
ENSG00000186862,NG_028030.1,NM_001195263.1,PDZD7,,AR,,,,,PDZ domain containing 7,,YES,YES,YES,YES,YES,YES,YES,YES,YES,,R,R
ENSG00000121440,NG_047128.1,NM_015009.1,PDZRN3,,AR,,,,,PDZ domain containing ring finger 3,,NO,NO,NO,NO,NO,NO,NO,YES,YES,0.1,R,R
ENSG00000127980,NG_008341.1,NM_000466.2,PEX1,,AR,,,,,peroxisomal biogenesis factor 1,,YES,YES,YES,YES,YES,YES,YES,YES,YES,,R,R
ENSG00000157911,NG_008342.1,NM_153818.1,PEX10,,AR,,,,,peroxisomal biogenesis factor 10,,YES,YES,YES,YES,YES,YES,YES,YES,YES,,R,R
ENSG00000142655,NG_008340.1,NM_004565.2,PEX14,,AR,,,,,peroxisomal biogenesis factor 14,,YES,YES,YES,YES,YES,YES,YES,YES,YES,,R,R
ENSG00000121680,NG_008460.1,NM_004813.2,PEX16,,AR,,,,,peroxisomal biogenesis factor 16,,YES,YES,YES,YES,YES,YES,YES,YES,YES,,R,R
ENSG00000162735,NG_008637.1,NM_002857.3,PEX19,,AR,,,,,peroxisomal biogenesis factor 19,,YES,YES,YES,YES,YES,YES,YES,YES,YES,,R,R
ENSG00000164751,NG_008371.1,NM_000318.2,PEX2,,AR,,,,,peroxisomal biogenesis factor 2,,YES,YES,YES,YES,YES,YES,YES,YES,YES,,R,R
ENSG00000139197,NG_008448.1,NM_001131025.1,PEX5,,AR,,,,,peroxisomal biogenesis factor 5,,YES,YES,YES,YES,YES,YES,YES,YES,YES,,R,R
ENSG00000124587,NG_008370.1,NM_000287.3,PEX6,,AR,,,,,peroxisomal biogenesis factor 6,,YES,YES,YES,YES,YES,YES,YES,YES,YES,,R,R
ENSG00000112357,NG_008462.1,NM_000288.3,PEX7,,AR,,,,,peroxisomal biogenesis factor 7,,YES,YES,YES,YES,YES,YES,YES,YES,YES,,R,R
ENSG00000102144,NG_008862.1,NM_000291.3,PGK1,,XL,,,,,phosphoglycerate kinase 1,,NO,NO,NO,NO,YES,YES,YES,NO,NO,0.1,R,R
ENSG00000165462,NG_008169.1,NM_005169.3,PHOX2A,,AR,,,,,paired like homeobox 2a,,NO,NO,NO,NO,NO,NO,YES,YES,NO,,,,,S
ENSG00000107537,NG_012862.1,NM_006214.3,PHYH,,AR,,,,,phytanoyl-CoA 2-hydroxylase,,YES,YES,YES,YES,YES,YES,YES,YES,YES,,R,R
ENSG00000091622,NG_016020.1,NM_031220.3,PITPNM3,,AD,,,,,PITPNM family member 3,,YES,YES,YES,YES,YES,YES,YES,YES,YES,0.1,R,R
ENSG00000164093,NG_007120.1,NM_000325.5,PITX2,,AD,,,,,paired like homeodomain 2,,NO,NO,YES,YES,YES,YES,YES,YES,YES,,,,O
ENSG00000127472,NG_032045.1,NM_000929.2,PLA2G5,,AR,,,,,phospholipase A2 group V,,NO,YES,YES,YES,YES,YES,YES,YES,YES,,R,R
ENSG00000032444,NG_013374.1,NM_006702.4,PNPLA6,,AR,,,,,patatin like phospholipase domain containing 6,,NO,NO,NO,NO,NO,NO,NO,YES,YES,,R,R
ENSG00000139323,NG_041783.1,NM_172240.2,POC1B,,AR,,,,,POC1 centriolar protein B,,NO,NO,NO,NO,NO,NO,YES,YES,YES,,R,R
ENSG00000140521,NG_008218.1,NM_002693.2,POLG,,AR;AD,,,,,DNA polymerase gamma catalytic subunit,,NO,NO,NO,NO,NO,NO,YES,YES,YES,,,,O
ENSG00000086717,NG_012519.1,NM_006240.2,PPEF1,,AR,,,,,protein phosphatase with EF-hand domain 1,,NO,NO,NO,NO,NO,NO,NO,YES,YES,0.1,R,R
ENSG00000131238,NG_009192.1,NM_000310.3,PPT1,,AR,,,,,palmitoyl-protein thioesterase 1,,NO,NO,NO,NO,NO,YES,YES,YES,YES,,R,R
ENSG00000214140,NG_016702.1,NM_001077620.2,PRCD,,AR,,,,,photoreceptor disc component,,YES,YES,YES,YES,YES,YES,YES,YES,YES,,R,R
ENSG00000112238,,NM_021620.3,PRDM13,,AR,,,,,PR/SET domain 13,,NO,NO,NO,NO,NO,NO,NO,YES,YES,,R,R
ENSG00000072062,NG_029699.1,NM_002730.3,PRKACA,,AR,,,,,protein kinase cAMP-activated catalytic subunit alpha,,YES,YES,YES,YES,YES,YES,YES,NO,NO,0.1,R,R
ENSG00000007062,NG_011696.1,NM_006017.2,PROM1,,AR;AD,,,,,prominin 1,,YES,YES,YES,YES,YES,YES,YES,YES,YES,,R,R
ENSG00000117360,NG_008245.1,NM_004698.2,PRPF3,,AD,,,,,pre-mRNA processing factor 3,,YES,YES,YES,YES,YES,YES,YES,YES,YES,,R,R
ENSG00000105618,NG_009759.1,NM_015629.3,PRPF31,,AD,,,,Yes,pre-mRNA processing factor 31,,YES,YES,YES,YES,YES,YES,YES,YES,YES,,R,R
ENSG00000136875,NG_034225.1,NM_004697.4,PRPF4,,AD,,,,,pre-mRNA processing factor 4,,NO,NO,NO,NO,NO,NO,YES,YES,YES,,R,R
ENSG00000101161,NG_029719.1,NM_012469.3,PRPF6,,AD,,,,,pre-mRNA processing factor 6,,YES,YES,YES,YES,YES,YES,YES,YES,YES,,R,R
ENSG00000174231,NG_009118.1,NM_006445.3,PRPF8,,AD,,,,,pre-mRNA processing factor 8,,YES,YES,YES,YES,YES,YES,YES,YES,YES,,R,R
ENSG00000112619,NG_009176.1,NM_000322.4,PRPH2,,AR;AD,,,,Yes,peripherin 2,,YES,YES,YES,YES,YES,YES,YES,YES,YES,,R,R
ENSG00000157869,NG_033891.1,NM_004249.3,RAB28,,AR,,,,,RAB28 member RAS oncogene family,,NO,NO,NO,YES,YES,YES,YES,YES,YES,,R,R
ENSG00000182185,NG_023267.2,NM_133509.3,RAD51B,,AR,,,,,RAD51 paralog B,,NO,NO,NO,NO,NO,NO,NO,YES,YES,0.1,R,R
ENSG00000173976,NG_011565.1,NM_032753.3,RAX2,,AD,,,,,retina and anterior neural fold homeobox 2,,YES,YES,YES,YES,YES,YES,YES,YES,YES,,R,R
ENSG00000265203,NG_046988.1,NM_002900.2,RBP3,,AR,,,,,retinol binding protein 3,,YES,YES,YES,YES,YES,YES,YES,YES,YES,,R,R
ENSG00000138207,NG_009104.1,NM_006744.3,RBP4,,AR,,,,,retinol binding protein 4,,YES,YES,YES,YES,YES,YES,YES,YES,YES,,R,R
ENSG00000136144,NG_046892.1,NM_018191.3,RCBTB1,,AR,,,,,RCC1 and BTB domain containing protein 1,,NO,NO,NO,NO,NO,NO,NO,YES,YES,,R,R
ENSG00000198570,NG_013042.1,NM_183059.2,RD3,,AR,,,,,retinal degeneration 3,,YES,YES,YES,YES,YES,YES,YES,YES,YES,,R,R
ENSG00000139988,NG_008321.1,NM_152443.2,RDH12,,AR;AD,,,,,retinol dehydrogenase 12 (all-trans/9-cis/11-cis),,YES,YES,YES,YES,YES,YES,YES,YES,YES,,R,R
ENSG00000135437,NG_008606.1,NM_002905.3,RDH5,,AR,,,,,retinol dehydrogenase 5,,YES,YES,YES,YES,YES,YES,YES,YES,YES,,R,R
ENSG00000115255,NG_055254.1,NM_138393.1,REEP6,,AR,,,,,receptor accessory protein 6,,NO,NO,NO,NO,NO,NO,NO,YES,YES,,R,R
ENSG00000148604,NG_009106.1,NM_002921.3,RGR,,AR;AD,,,,,retinal G protein coupled receptor,,YES,YES,YES,YES,YES,YES,YES,YES,YES,,R,R
ENSG00000108370,NG_013021.1,NM_003835.3,RGS9,,AR,,,,,regulator of G protein signaling 9,,YES,YES,YES,YES,YES,YES,YES,YES,YES,,R,R
ENSG00000186326,NG_016751.1,NM_207391.2,RGS9BP,,AR,,,,,regulator of G protein signaling 9 binding protein,,YES,YES,YES,YES,YES,YES,YES,YES,YES,,R,R
ENSG00000163914,NG_009115.1,NM_000539.3,RHO,,AR;AD,,,,,rhodopsin,,YES,YES,YES,YES,YES,YES,YES,YES,YES,,R,R
ENSG00000079841,NG_016209.1,NM_014989.5,RIMS1,,AD,,,,,regulating synaptic membrane exocytosis 1,,YES,YES,YES,YES,YES,YES,YES,YES,YES,0.1,R,R
ENSG00000140522,NG_008116.1,NM_000326.4,RLBP1,,AR,,,,,retinaldehyde binding protein 1,,YES,YES,YES,YES,YES,YES,YES,YES,YES,,R,R
ENSG00000154134,NG_016214.1,NM_022370.3,ROBO3,,AR,,,,,roundabout guidance receptor 3,,NO,NO,NO,NO,NO,NO,YES,YES,NO,,,,,S
ENSG00000149489,NG_009845.1,NM_000327.3,ROM1,,AD,,,,,retinal outer segment membrane protein 1,,YES,YES,YES,YES,YES,YES,YES,YES,YES,0.1,R,R
ENSG00000104237,NG_009840.1,NM_006269.1,RP1,,AR;AD,,,,,RP1 axonemal microtubule associated,,YES,YES,YES,YES,YES,YES,YES,YES,YES,,R,R
ENSG00000183638,NG_028035.1,NM_178857.5,RP1L1,,,,,,,RP1 like 1,,YES,YES,YES,YES,YES,YES,YES,YES,YES,,R,R
ENSG00000102218,NG_009107.1,NM_006915.2,RP2,,XL,,,,,RP2 ARL3 GTPase activating protein,,YES,YES,YES,YES,YES,YES,YES,YES,YES,,R,R
ENSG00000164610,NG_012968.1,NM_203288.1,RP9,,AD,,,,,RP9 pre-mRNA splicing factor,,YES,YES,YES,YES,YES,YES,YES,YES,YES,,R,R
ENSG00000116745,NG_008472.1,NM_000329.2,RPE65,,AR;AD,,,,,RPE65 retinoid isomerohydrolase,,YES,YES,YES,YES,YES,YES,YES,YES,YES,,R,R
ENSG00000156313,NG_009553.1,NM_001034853.1,RPGR,,XL,,,,,retinitis pigmentosa GTPase regulator,,YES,YES,YES,YES,YES,YES,YES,YES,YES,,R,R
ENSG00000092200,NG_008933.1,NM_020366.3,RPGRIP1,,AR,,,,,retinitis pigmentosa GTPase regulator interacting protein 1,,YES,YES,YES,YES,YES,YES,YES,YES,YES,,R,R
ENSG00000103494,NG_008991.2,NM_015272.2,RPGRIP1L,,AR,,,,,RPGRIP1 like,,YES,YES,YES,YES,YES,YES,YES,YES,YES,,R,R
ENSG00000114391,,NM_000986.3,RPL24,,AR,,,,,ribosomal protein L24,,NO,NO,NO,NO,NO,NO,NO,YES,YES,0.1,R,R
ENSG00000102104,NG_008659.3,NM_000330.3,RS1,,XL-Dom,,,,,retinoschisin 1,,YES,YES,YES,YES,YES,YES,YES,YES,YES,,R,R
ENSG00000130561,NG_009116.1,NM_000541.4,SAG,,AR,,,,,S-antigen visual arrestin,,YES,YES,YES,YES,YES,YES,YES,YES,YES,,R,R
ENSG00000101115,NG_008000.1,NM_020436.3,SALL4,,AD,,,,,spalt like transcription factor 4,,NO,NO,NO,NO,NO,NO,YES,YES,NO,,,,,S
ENSG00000111961,NG_051927.1,NM_015278.3,SASH1,,AR,,,,,SAM and SH3 domain containing 1,,NO,NO,NO,NO,NO,NO,NO,YES,YES,0.1,R,R
ENSG00000054282,NG_027811.1,NM_006642.3,SDCCAG8,,AR,,,,,serologically defined colon cancer antigen 8,,YES,YES,YES,YES,YES,YES,YES,YES,YES,,R,R
ENSG00000196189,NG_027683.1,NM_022367.3,SEMA4A,,AR,,,,,semaphorin 4A,,YES,YES,YES,YES,YES,YES,YES,YES,YES,,R,R
ENSG00000074621,NG_031968.2,NM_004727.2,SLC24A1,,AR,,,,,solute carrier family 24 member 1,,YES,YES,YES,YES,YES,YES,YES,YES,YES,,R,R
ENSG00000164209,NG_051334.1,NM_138773.1,SLC25A46,,AR,,,,,solute carrier family 25 member 46,,NO,NO,NO,NO,NO,NO,NO,YES,YES,,R,R,O
ENSG00000164175,NG_011691.2,NM_016180.3,SLC45A2,,AR,,,,,solute carrier family 45 member 2,,YES,YES,YES,YES,YES,YES,YES,YES,YES,,R,R
ENSG00000188687,NG_032663.1,NM_021196.3,SLC4A5,,AR;AD,,,,,solute carrier family 4 member 5,,YES,YES,YES,YES,YES,YES,YES,YES,YES,0.1,R,R
ENSG00000013293,NG_034121.1,NM_020949.2,SLC7A14,,AR,,,,,solute carrier family 7 member 14,,NO,NO,NO,NO,NO,NO,YES,YES,YES,,R,R
ENSG00000080503,NG_032162.2,NM_003070.3,SMARCA2,,AR,,,,,SWI/SNF related matrix associated actin dependent regulator of chromatin subfamily a member 2,,NO,NO,NO,NO,NO,NO,NO,YES,YES,0.1,R,R
ENSG00000144028,NG_016973.1,NM_014014.4,SNRNP200,,AR;AD,,,,,small nuclear ribonucleoprotein U5 subunit 200,,YES,YES,YES,YES,YES,YES,YES,YES,YES,,R,R
ENSG00000042317,NG_021183.1,NM_018418.4,SPATA7,,AR,,,,,spermatogenesis associated 7,,YES,YES,YES,YES,YES,YES,YES,YES,YES,,R,R
ENSG00000197912,NG_008082.1,NM_003119.2,SPG7,,AR;AD,,,,,SPG7 paraplegin matrix AAA peptidase subunit,,NO,NO,NO,NO,NO,NO,YES,YES,YES,,,,O
ENSG00000072080,NG_008668.1,NM_006944.2,SPP2,,AR,,,,,secreted phosphoprotein 2,,NO,NO,NO,NO,NO,NO,NO,YES,YES,,R,R
ENSG00000128039,NG_028230.1,NM_024592.4,SRD5A3,,AR,,,,,steroid 5 alpha-reductase 3,,NO,NO,NO,NO,NO,NO,NO,YES,YES,,R,R
ENSG00000184895,NG_011751.1,NM_003140.2,SRY,,,,,,,sex determining region Y,,NO,NO,NO,NO,NO,NO,NO,YES,YES,0.1,R,R
ENSG00000187079,NG_021302.1,NM_021961.5,TEAD1,,AD,,,,,TEA domain transcription factor 1,,YES,YES,YES,YES,YES,YES,YES,YES,YES,,R,R
ENSG00000120156,NG_011828.1,NM_000459.3,TEK,,AD,,,,,TEK receptor tyrosine kinase,,NO,NO,NO,NO,NO,NO,NO,YES,YES,,,,O
ENSG00000126953,NG_011734.1,NM_004085.3,TIMM8A,,XL,,,,,translocase of inner mitochondrial membrane 8A,,NO,NO,NO,YES,YES,YES,YES,YES,YES,,R,R
ENSG00000100234,NG_009117.1,NM_000362.4,TIMP3,,AD,,,,,TIMP metallopeptidase inhibitor 3,,YES,YES,YES,YES,YES,YES,YES,YES,YES,,R,R
ENSG00000171202,NG_017157.1,NM_032273.3,TMEM126A,,AR,,,,,transmembrane protein 126A,,YES,YES,YES,YES,YES,YES,YES,YES,YES,,R,R
ENSG00000205084,NG_033109.1,NM_001077416.2,TMEM231,,AR,,,,,transmembrane protein 231,,NO,NO,NO,NO,YES,YES,YES,YES,YES,,R,R
ENSG00000155755,NG_032049.1,NM_001044385.2,TMEM237,,AR,,,,,transmembrane protein 237,,NO,YES,YES,YES,YES,YES,YES,YES,YES,,R,R
ENSG00000164953,NG_009190.1,NM_153704.5,TMEM67,,AR,,,,,transmembrane protein 67,,YES,YES,YES,YES,YES,YES,YES,YES,YES,,R,R
ENSG00000197579,NG_017050.1,NM_005802.4,TOPORS,,AD,,,,,TOP1 binding arginine/serine rich protein,,YES,YES,YES,YES,YES,YES,YES,YES,YES,,R,R
ENSG00000166340,NG_008653.1,NM_000391.3,TPP1,,AR,,,,,tripeptidyl peptidase 1,,NO,NO,NO,NO,NO,YES,YES,YES,YES,,R,R
ENSG00000213689,NG_009820.2,NM_033629.3,TREX1,,AD,,,,,three prime repair exonuclease 1,,NO,NO,NO,YES,YES,YES,YES,YES,YES,,R,R
ENSG00000119401,NG_011619.1,NM_012210.3,TRIM32,,AR,,,,,tripartite motif containing 32,,YES,YES,YES,YES,YES,YES,YES,YES,YES,,R,R
ENSG00000153827,NG_053017.1,NM_004238.1,TRIP12,,AR,,,,,thyroid hormone receptor interactor 12,,NO,NO,NO,NO,NO,NO,NO,YES,YES,0.1,R,R
ENSG00000144935,NG_030369.1,NM_001251845.1,TRPC1,,AR,,,,,transient receptor potential cation channel subfamily C member 1,,YES,YES,YES,YES,YES,YES,YES,NO,NO,0.1,R,R
ENSG00000134160,NG_016453.2,NM_001252020.1,TRPM1,,AR,,,,,transient receptor potential cation channel subfamily M member 1,,YES,YES,YES,YES,YES,YES,YES,YES,YES,,R,R
ENSG00000142185,NG_022913.1,NM_003307.3,TRPM2,,AR,,,,,transient receptor potential cation channel subfamily M member 2,,YES,YES,YES,YES,YES,YES,YES,NO,NO,0.1,R,R
ENSG00000106025,NG_023203.1,NM_012338.3,TSPAN12,,AD,,,,,tetraspanin 12,,YES,YES,YES,YES,YES,YES,YES,YES,YES,,R,R
ENSG00000123607,NG_030345.1,NM_024753.4,TTC21B,,AR,,,,,tetratricopeptide repeat domain 21B,,YES,YES,YES,YES,YES,YES,YES,YES,YES,,R,R
ENSG00000100154,,NM_001145418.1,TTC28,,AR,,,,,tetratricopeptide repeat domain 28,,NO,NO,NO,NO,NO,NO,YES,YES,YES,,R,R
ENSG00000165533,NG_008126.1,NM_144596.2,TTC8,,AR,,,,,tetratricopeptide repeat domain 8,,YES,YES,YES,YES,YES,YES,YES,YES,YES,,R,R
ENSG00000119685,NG_016974.1,NM_015072.4,TTLL5,,AR,,,,,tubulin tyrosine ligase like 5,,NO,NO,NO,NO,NO,NO,YES,YES,YES,,R,R
ENSG00000137561,NG_016123.1,NM_000370.3,TTPA,,AR;AD,,,,,alpha tocopherol transfer protein,,NO,NO,NO,YES,YES,YES,YES,YES,YES,,R,R
ENSG00000166402,NG_029912.1,NM_003320.4,TUB,,AR,,,,,tubby bipartite transcription factor,,NO,NO,NO,NO,NO,NO,YES,YES,YES,,R,R
ENSG00000258947,NG_027810.1,NM_006086.3,TUBB3,,AD,,,,,tubulin beta 3 class III,,NO,NO,NO,NO,NO,NO,YES,YES,NO,,,,,S
ENSG00000137822,NG_042168.1,NM_014444.2,TUBGCP4,,AR,,,,,tubulin gamma complex associated protein 4,,NO,NO,NO,NO,NO,NO,NO,YES,YES,,R,R
ENSG00000112041,NG_009077.1,NM_003322.3,TULP1,,AR,,,,,tubby like protein 1,,YES,YES,YES,YES,YES,YES,YES,YES,YES,,R,R
ENSG00000077498,NG_008748.1,NM_000372.4,TYR,,AR;AD,,,,,tyrosinase,,YES,YES,YES,YES,YES,YES,YES,YES,YES,,R,R
ENSG00000107165,NG_011705.1,NM_000550.2,TYRP1,,AR,,,,,tyrosinase related protein 1,,YES,YES,YES,YES,YES,YES,YES,YES,YES,,R,R
ENSG00000109103,NG_012302.1,NM_005148.3,UNC119,,AD,,,,,unc-119 lipid binding chaperone,,YES,YES,YES,YES,YES,YES,YES,YES,YES,0.1,R,R
ENSG00000006611,NG_011883.1,NM_153676.3,USH1C,,AR,,,,,USH1 protein network component harmonin,,YES,YES,YES,YES,YES,YES,YES,YES,YES,,R,R
ENSG00000182040,NG_007882.1,NM_173477.2,USH1G,,AR,,,,,USH1 protein network component sans,,YES,YES,YES,YES,YES,YES,YES,YES,YES,,R,R
ENSG00000042781,NG_009497.1,NM_206933.2,USH2A,,AR,,,,,usherin,,YES,YES,YES,YES,YES,YES,YES,YES,YES,,R,R
ENSG00000038427,NG_012682.1,NM_004385.4,VCAN,,AD,,,,,versican,,YES,YES,YES,YES,YES,YES,YES,YES,YES,,R,R
ENSG00000132549,NG_007098.2,NM_017890.4,VPS13B,,AR,,,,,vacuolar protein sorting 13 homolog B,,YES,YES,YES,YES,YES,YES,YES,YES,YES,,R,R
ENSG00000132970,,NM_006646.5,WASF3,,AR,,,,,WAS protein family member 3,,NO,NO,NO,YES,YES,YES,YES,NO,NO,0.1,R,R
ENSG00000143951,NG_028144.1,NM_015910.5,WDPCP,,AR,,,,,WD repeat containing planar cell polarity effector,,NO,YES,YES,YES,YES,YES,YES,YES,YES,,R,R
ENSG00000157796,NG_031813.1,NM_025132.3,WDR19,,AR,,,,,WD repeat domain 19,,NO,YES,YES,YES,YES,YES,YES,YES,YES,,R,R
ENSG00000119333,NG_034056.1,NM_052844.3,WDR34,,AR,,,,,WD repeat domain 34,,NO,NO,NO,NO,YES,YES,YES,YES,YES,,R,R
ENSG00000118965,NG_021212.1,NM_001006657.1,WDR35,,AR,,,,,WD repeat domain 35,,NO,NO,NO,NO,NO,NO,YES,YES,YES,,R,R
ENSG00000109501,NG_011700.1,NM_006005.3,WFS1,,AR;AD,,,,,wolframin ER transmembrane glycoprotein,,YES,YES,YES,YES,YES,YES,YES,YES,YES,,R,R,O
ENSG00000095397,NG_016700.1,NM_015404.3,WHRN,DFNB31,AR,,,,,whirlin,,YES,YES,YES,YES,YES,YES,YES,YES,YES,,R,R
ENSG00000056277,NG_021388.1,NM_017666.4,ZNF280C,,AR,,,,,zinc finger protein 280C,,NO,NO,NO,NO,NO,NO,NO,YES,YES,0.1,R,R
ENSG00000175213,NG_052967.1,NM_024741.2,ZNF408,,AR,,,,,zinc finger protein 408,,NO,NO,NO,NO,NO,NO,NO,YES,YES,,R,R
ENSG00000102935,NG_032972.2,NM_015069.3,ZNF423,,AR;AD,,,,,zinc finger protein 423 (AD also mentioned in OMIM for Joubert),,NO,NO,NO,NO,YES,YES,YES,YES,YES,,R,R
ENSG00000163795,NG_028219.1,NM_144631.5,ZNF513,,AR,,,,,zinc finger protein 513,,YES,YES,YES,YES,YES,YES,YES,YES,YES,,R,R
ENSG00000188229,NG_000000.1,NM_006088.5,TUBB4B,,AR,,,,,tubulin beta 4B class IVb,,NO,NO,NO,NO,NO,NO,NO,NO,YES,,R,R
ENSG00000101986,NG_009022.2,NM_000033.4,ABCD1,,XL,,,,,ATP binding cassette subfamily D member 1 ,adrenoleukodystrophy,NO,NO,NO,NO,NO,NO,NO,NO,YES,,R,R
ENSG00000159346,NG_052860.1,NM_015999.6,ADIPOR1,,AR,,,,,adiponectin receptor 1,,NO,NO,NO,NO,NO,NO,NO,NO,YES,,R,R
ENSG00000084693,NG_052914.1,NM_021831.6,AGBL5,,AR,,,,,ATP/GTP binding protein like 5,Retinitis pigmentosa 75 ,NO,NO,NO,NO,NO,NO,NO,NO,YES,,R,R
ENSG00000242110,NG_016211.1,NM_014324.6,AMACR,,AR,,,,,alpha-methylacyl-CoA racemase,Alpha-methylacyl-CoA racemase deficiency (Refsum-like),NO,NO,NO,NO,NO,NO,NO,NO,YES,,R,R
ENSG00000108641,NG_031885.2,NM_001243473.2,B9D1,,AR,,,,,B9 domain containing 1,Joubert syndrome 27 ,NO,NO,NO,NO,NO,NO,NO,NO,YES,,R,R
ENSG00000123810,NG_013091.1,NM_030578.4,B9D2,,AR,,,,,B9 domain containing 2,Meckel syndrome 10 ,NO,NO,NO,NO,NO,NO,NO,NO,YES,,R,R
ENSG00000126001,NG_051604.1,NM_007186.6,CEP250,,AR,,,,,centrosomal protein 250,Usher (cone-rid dystrophy),NO,NO,NO,NO,NO,NO,NO,NO,YES,,R,R
ENSG00000044115,NG_047029.1,NM_001323982.2,CTNNA1,,AD,,,,,catenin alpha 1,,NO,NO,NO,NO,NO,NO,NO,NO,YES,,R,R
ENSG00000117984,NG_008655.1,NM_001909.5,CTSD,,AR,,,,,cathepsin D,,NO,NO,NO,NO,NO,NO,NO,NO,YES,,R,R
ENSG00000101152,NG_029805.2,NM_025219.3,DNAJC5,,AD,,,,,DnaJ heat shock protein family (Hsp40) member C5,,NO,NO,NO,NO,NO,NO,NO,NO,YES,,R,R
ENSG00000165694,NG_012347.1,NM_194277.2,FRMD7,,XL,,,,,FERM domain containing 7,,NO,NO,NO,NO,NO,NO,NO,NO,YES,,R,R
ENSG00000164588,NG_042183.1,NM_021072.4,HCN1,,AD,,,,,hyperpolarization activated cyclic nucleotide gated potassium channel 1,,NO,NO,NO,NO,NO,NO,NO,NO,YES,,R,R
ENSG00000165102,NG_009552.1,NM_152419.3,HGSNAT,,AR,,,,,heparan-alpha-glucosaminide N-acetyltransferase,Retinitis pigmentosa 73 ,NO,NO,NO,NO,NO,NO,NO,NO,YES,,R,R
ENSG00000156515,NG_012077.1,NM_000188.2,HK1,,AD,,,,,hexokinase 1,Retinitis pigmentosa 79 ,NO,NO,NO,NO,NO,NO,NO,NO,YES,,R,R
ENSG00000166813,NG_030338.1,NM_198525.3,KIF7,,AR,,,,,kinesin family member 7,Joubert syndrome 12 ,NO,NO,NO,NO,NO,NO,NO,NO,YES,,R,R
ENSG00000100578,NG_051335.2,NM_001244189.2,KIAA0586,,AR,,,,,conserved centrosomal protein that functions in ciliogenesis,Short-rib thoracic dysplasia 14 with polydactyly ,NO,NO,NO,NO,NO,NO,NO,NO,YES,,R,R
ENSG00000101680,NG_034251.1,NM_005559.4,LAMA1,,AR,,,,,laminin subunit alpha 1,Poretti-Boltshauser syndrome - variable retinal dystrophy,NO,NO,NO,NO,NO,NO,NO,NO,YES,,R,R
ENSG00000132763,NG_013378.1,NM_015506.3,MMACHC,,AR,,,,,metabolism of cobalamin associated C,,NO,NO,NO,NO,NO,NO,NO,NO,YES,,R,R
ENSG00000131779,NG_033000.3,NM_003846.3,PEX11B,,AR,,,,,peroxisomal biogenesis factor 11 beta ,Peroxisome biogenesis disorder 14B ,NO,NO,NO,NO,NO,NO,NO,NO,YES,,R,R
ENSG00000108733,NG_008447.1,NM_000286.3,PEX12,,AR,,,,,peroxisomal biogenesis factor 12,Peroxisome biogenesis disorder 3B and 3A,NO,NO,NO,NO,NO,NO,NO,NO,YES,,R,R
ENSG00000162928,NG_008665.1,NM_002618.4,PEX13,,AR,,,,,peroxisomal biogenesis factor 13,Peroxisome biogenesis disorder 11B and 11A,NO,NO,NO,NO,NO,NO,NO,NO,YES,,R,R
ENSG00000034693,NG_008459.1,NM_003630.3,PEX3,,AR,,,,,peroxisomal biogenesis factor 3,Peroxisome biogenesis disorder 10A,NO,NO,NO,NO,NO,NO,NO,NO,YES,,R,R
ENSG00000215193,NG_008339.1,NM_017929.6,PEX26,,AR,,,,,peroxisomal biogenesis factor 26,Peroxisome biogenesis disorder ,NO,NO,NO,NO,NO,NO,NO,NO,YES,,R,R
ENSG00000142731,NG_041821.1,NM_014264.5,PLK4,,AR,,,,,polo like kinase 4,,NO,NO,NO,NO,NO,NO,NO,NO,YES,,R,R
ENSG00000126583,NG_009114.1,NM_001316329.2,PRKCG,,AR,,,,,protein kinase C gamma,,NO,NO,NO,NO,NO,NO,NO,NO,YES,0.1,R,R
ENSG00000147224,NG_008407.1,NM_002764.4,PRPS1,,XL,,,,,phosphoribosyl pyrophosphate synthetase 1,,NO,NO,NO,NO,NO,NO,NO,NO,YES,,R,R
ENSG00000072042,NG_042282.1,NM_016026.4,RDH11,,AR,,,,,retinol dehydrogenase 11,,NO,NO,NO,NO,NO,NO,NO,NO,YES,,R,R
ENSG00000130347,NG_047205.1,NM_032730.5,RTN4IP1,,AR,,,,,reticulon 4 interacting protein 1,,NO,NO,NO,NO,NO,NO,NO,NO,YES,,,,O
ENSG00000204852,NG_030381.1,NM_001082538.3,TCTN1,,AR,,,,,tectonic family member 1,Joubert syndrome 13 ,NO,NO,NO,NO,NO,NO,NO,NO,YES,,R,R
ENSG00000168778,NG_030442.1,NM_024809.5,TCTN2,,AR,,,,,tectonic family member 2,Joubert syndrome 24 ,NO,NO,NO,NO,NO,NO,NO,NO,YES,,R,R
ENSG00000119977,NG_032953.1,NM_015631.6,TCTN3,,AR,,,,,tectonic family member 3,Joubert syndrome 18 ,NO,NO,NO,NO,NO,NO,NO,NO,YES,,R,R
ENSG00000179029,NG_054916.1,NM_032354.5,TMEM107,,AR,,,,,transmembrane protein 107,Joubert syndrome/Ciliopathy,NO,NO,NO,NO,NO,NO,NO,NO,YES,,R,R
ENSG00000149483,NG_032581.1,NM_016464.5,TMEM138,,AR,,,,,transmembrane protein 138,Ciliopathy/Joubert,NO,NO,NO,NO,NO,NO,NO,NO,YES,,R,R
ENSG00000187049,NG_032976.1,NM_016499.5,TMEM216,,AR,,,,,transmembrane protein 216,Ciliopathy,NO,NO,NO,NO,NO,NO,NO,NO,YES,,R,R
ENSG00000072756,NG_041800.2,NM_182916.3,TRNT1,,AR,,,,,tRNA nucleotidyl transferase 1,,NO,NO,NO,NO,NO,NO,NO,NO,YES,,R,R
ENSG00000128159,NG_032160.1,NM_020461.4,TUBGCP6,,AR,,,,,tubulin gamma complex associated protein 6,Microcephaly and chorioretinopathy,NO,NO,NO,NO,NO,NO,NO,NO,YES,,R,R
ENSG00000119614,NG_013092.1,NM_182894.3,VSX2,,AR,,,,,visual system homeobox 2,microphthalmia with coloboma,NO,NO,NO,NO,NO,NO,NO,NO,YES,,R,R
ENSG00000141337,NG_032814.2,NM_014960.5,ARSG,,AR,,,,,arylsulfatase G,late onset Usher; PMID:29300381,NO,NO,NO,NO,NO,NO,NO,NO,YES,,R,R
ENSG00000187634,,NM_152486.3,SAMD11,,AR,,,,,sterile alpha motif domain containing 11,AR-RP,NO,NO,NO,NO,NO,NO,NO,NO,YES,,R,R
ENSG00000085998,NG_009205.2,NM_017739.3,POMGNT1,,AR,,,,,protein O-linked mannose N-acetylglucosaminyltransferase 1 (beta 1;2),AR-RP; this gene is known to cause congenital brain and eye anomalies.  Reported in 2016 to cause isolated RP,NO,NO,NO,NO,NO,NO,NO,NO,YES,,R,R
ENSG00000130713,,NM_014285.7,EXOSC2,,AR,,,,,exosome component 2,AR retinitis pigmentosa with hearing loss and additional disabilities,NO,NO,NO,NO,NO,NO,NO,NO,YES,,R,R
ENSG00000138175,,NM_004311.4,ARL3,,AD,,,,,ADP ribosylation factor like GTPase 3,AD RP,NO,NO,NO,NO,NO,NO,NO,NO,YES,,R,R
ENSG00000122970,NG_052859.1,NM_014055.4,IFT81,,AR,,,,,intraflagellar transport 81,AR CORD,NO,NO,NO,NO,NO,NO,NO,NO,YES,,R,R
ENSG00000103351,NG_047131.1,NM_015041.3,CLUAP1,,AR,,,,,clusterin associated protein 1,AR LCA,NO,NO,NO,NO,NO,NO,NO,NO,YES,,R,R
ENSG00000104880,NG_047135.1,NM_015318.4,ARHGEF18,,AR,,,,,Rho/Rac guanine nucleotide exchange factor 18,AR - CSNB,NO,NO,NO,NO,NO,NO,NO,NO,YES,,R,R
ENSG00000121940,,NM_001048210.3,CLCC1,,AR,,,,,chloride channel CLIC like 1,AR-RP,NO,NO,NO,NO,NO,NO,NO,NO,YES,,R,R
ENSG00000156510,NG_051555.1,NM_025130.4,HKDC1,,AR,,,,,hexokinase domain containing 1,AR hearing loss,NO,NO,NO,NO,NO,NO,NO,NO,YES,,R,R
ENSG00000166411,,NM_005530.3,IDH3A,,AR,,,,,isocitrate dehydrogenase (NAD(+)) 3 catalytic subunit alpha,Retinitis Pigmentosa Accompanied by Pseudocoloboma 28412069,NO,NO,NO,NO,NO,NO,NO,NO,YES,,R,R
ENSG00000135931,,NM_025139.6,ARMC9,,AR,,,,,armadillo repeat containing 9,,NO,NO,NO,NO,NO,NO,NO,NO,YES,,R,R
ENSG00000154188,NG_029405.1,NM_001146.5,ANGPT1,,,,,,,angiopoietin 1,GEDi-O per J. Wiggs,NO,NO,NO,NO,NO,NO,NO,NO,YES,,,,O
ENSG00000160111,NG_054892.1,NM_015692.5,CPAMD8,,AR,,,,,C3 and PZP like alpha-2-macroglobulin domain containing 8,GEDi-O per J. Wiggs,NO,NO,NO,NO,NO,NO,NO,NO,YES,,,,O
ENSG00000183735,NG_046906.1,NM_013254.4,TBK1,,,,,,,TANK binding kinase 1,GEDi-O per J. Wiggs,NO,NO,NO,NO,NO,NO,NO,NO,YES,,,,O
ENSG00000130203,NG_007084.2,NM_001302688.2,APOE,,,,,,,apolipoprotein E,,YES,YES,YES,YES,NO,NO,NO,NO,NO,,R,R
ENSG00000254636,NG_011725.1,NM_001099667.3,ARMS2,,,,,,,age-related maculopathy susceptibility 2,,YES,YES,YES,YES,NO,NO,NO,NO,NO,,R,R
ENSG00000166278,NG_011730.1,NM_000063.6,C2,,,,,,,complement C2,,YES,YES,YES,YES,NO,NO,NO,NO,NO,,R,R
ENSG00000125730,NG_009557.1,NM_000064.4,C3,,,,,,,complement C3,,YES,YES,YES,YES,NO,NO,NO,NO,NO,,R,R
ENSG00000243649,NG_008191.1,NM_001710.6,CFB,,,,,,,complement factor B,,YES,YES,YES,YES,NO,NO,NO,NO,NO,,R,R
ENSG00000000971,NG_007259.1,NM_000186.4,CFH,,,,,,,complement factor H,,YES,YES,YES,YES,NO,NO,NO,NO,NO,,R,R
ENSG00000140092,NG_008254.1,NM_006329.4,FBLN5,,,,,,,fibulin 5,,YES,YES,YES,YES,NO,NO,NO,NO,NO,,R,R
ENSG00000166033,NG_011554.1,NM_002775.5,HTRA1,,,,,,,HtrA serine peptidase 1,,YES,YES,YES,YES,NO,NO,NO,NO,NO,,R,R
ENSG00000164342,NG_007278.1,NM_003265.3,TLR3,,,,,,,toll like receptor 3,,YES,YES,YES,YES,NO,NO,NO,NO,NO,,R,R
ENSG00000136869,NG_011475.1,NM_003266.4,TLR4,,,,,,,toll like receptor 4,,YES,YES,YES,YES,NO,NO,NO,NO,NO,,R,R
